^C:\DOCUMENTS AND SETTINGS\TK\MY DOCUMENTS\VISUAL STUDIO 2010\PROJECTS\CS458-LAB0\CS458-LAB0\DEBUG\CS458-LAB0.EXE.EMBED.MANIFEST.RES|C:\DOCUMENTS AND SETTINGS\TK\MY DOCUMENTS\VISUAL STUDIO 2010\PROJECTS\CS458-LAB0\CS458-LAB0\DEBUG\CS458-LAB0.OBJ|C:\DOCUMENTS AND SETTINGS\TK\MY DOCUMENTS\VISUAL STUDIO 2010\PROJECTS\CS458-LAB0\CS458-LAB0\DEBUG\STDAFX.OBJ
C:\DOCUMENTS AND SETTINGS\TK\MY DOCUMENTS\VISUAL STUDIO 2010\PROJECTS\CS458-LAB0\DEBUG\CS458-LAB0.ILK
C:\DOCUMENTS AND SETTINGS\TK\MY DOCUMENTS\VISUAL STUDIO 2010\PROJECTS\CS458-LAB0\DEBUG\CS458-LAB0.EXE
C:\DOCUMENTS AND SETTINGS\TK\MY DOCUMENTS\VISUAL STUDIO 2010\PROJECTS\CS458-LAB0\CS458-LAB0\DEBUG\CS458-LAB0.EXE.INTERMEDIATE.MANIFEST
C:\DOCUMENTS AND SETTINGS\TK\MY DOCUMENTS\VISUAL STUDIO 2010\PROJECTS\CS458-LAB0\DEBUG\CS458-LAB0.PDB
